{
    "result": {
        "statusCode": "0000",
        "message": "成功"
    },
    "data": {
        "pageCount": 10,
        "hasPreview": "0",
        "overFlag": "0",
        "pageNo": 1,
        "hasNext": "1",
        "keyword": "月",
        "totalCount": 940
    },
    "list": [
        {
            "artistCode": 9085,
            "artist": "大月みやこ",
            "artistYomi": "おおつきみやこ",
            "holdMusicCount": 316
        },
        {
            "artistCode": 171368,
            "artist": "tuki.",
            "artistYomi": "つき",
            "holdMusicCount": 22
        },
        {
            "artistCode": 21659,
            "artist": "水樹奈々",
            "artistYomi": "みずきなな",
            "holdMusicCount": 317
        },
        {
            "artistCode": 102203,
            "artist": "神田沙也加、稲葉菜月、諸星すみれ",
            "artistYomi": "かんださやかいなばなつきもろほしすみれ",
            "holdMusicCount": 1
        },
        {
            "artistCode": 94133,
            "artist": "ST☆RISH(一十木音也・聖川真斗・四ノ宮那月・一ノ瀬トキヤ・神宮寺レン・来栖翔・愛島セシル/cv.寺島拓篤・鈴村健一・谷山紀章・宮野真守・諏訪部順一・下野紘・鳥海浩輔)",
            "artistYomi": "すたーりっしゅいっときおとやひじりかわまさとしのみやなつきいちのせときやじんぐうじれんくるすしょうあいじませしるてらしまたくますずむらけんいちたにやまきしょうみやのまもるすわべじゅんいちしものひろとりうみこうすけ",
            "holdMusicCount": 11
        },
        {
            "artistCode": 82135,
            "artist": "ST☆RISH(一十木音也・聖川真斗・四ノ宮那月・一ノ瀬トキヤ・神宮寺レン・来栖翔/cv.寺島拓篤・鈴村健一・谷山紀章・宮野真守・諏訪部順一・下野紘)",
            "artistYomi": "すたーりっしゅいっときおとやひじりかわまさとしのみやなつきいちのせときやじんぐうじれんくるすしょうてらしまたくますずむらけんいちたにやまきしょうみやのまもるすわべじゅんいちしものひろ",
            "holdMusicCount": 2
        },
        {
            "artistCode": 48301,
            "artist": "月島きらり starring 久住小春(モーニング娘。)",
            "artistYomi": "つきしまきらりすたーりんぐくすみこはるもーにんぐむすめ",
            "holdMusicCount": 28
        },
        {
            "artistCode": 88797,
            "artist": "天月-あまつき-",
            "artistYomi": "あまつき",
            "holdMusicCount": 85
        },
        {
            "artistCode": 103853,
            "artist": "くらげP feat.結月ゆかり",
            "artistYomi": "くらげぴーふぃーちゃりんぐゆづきゆかり",
            "holdMusicCount": 5
        },
        {
            "artistCode": 90682,
            "artist": "天野月(天野月子)",
            "artistYomi": "あまのつきあまのつきこ",
            "holdMusicCount": 52
        },
        {
            "artistCode": 6672,
            "artist": "五月みどり",
            "artistYomi": "さつきみどり",
            "holdMusicCount": 19
        },
        {
            "artistCode": 127477,
            "artist": "[Knights]月永レオ(CV.浅沼晋太郎)、瀬名泉(CV.伊藤マサミ)、朔間凛月(CV.山下大輝)、鳴上嵐(CV.北村諒)、朱桜司(CV.土田玲央)",
            "artistYomi": "ないつつきながれおあさぬましんたろうせないずみいとうまさみさくまりつやましただいきなるかみあらしきたむらりょうすおうつかさつちだれいおう",
            "holdMusicCount": 8
        },
        {
            "artistCode": 88941,
            "artist": "阿良々木月火(井口裕香)",
            "artistYomi": "あららぎつきひいぐちゆか",
            "holdMusicCount": 1
        },
        {
            "artistCode": 155710,
            "artist": "月詠み",
            "artistYomi": "つくよみ",
            "holdMusicCount": 34
        },
        {
            "artistCode": 74316,
            "artist": "四ノ宮那月(cv.谷山紀章)",
            "artistYomi": "しのみやなつきたにやまきしょう",
            "holdMusicCount": 13
        },
        {
            "artistCode": 98233,
            "artist": "歌組雪月花 夜々(原田ひとみ)・いろり(茅野愛衣)・小紫(小倉唯)",
            "artistYomi": "うたぐみせつげつかややはらだひとみいろりかやのあいこむらさきおぐらゆい",
            "holdMusicCount": 2
        },
        {
            "artistCode": 93676,
            "artist": "THE IDOLM@STER CINDERELLA GIRLS(島村卯月(大橋彩香)/小日向美穂(津田美波)/三村かな子(大坪由佳)/渋谷凛(福原綾香)/多田李衣菜(青木瑠璃子)/神崎蘭子(内田真礼)/本田未央(原紗友里)/城ヶ崎美嘉(佳村はるか)/城ヶ崎莉嘉(山本希望))",
            "artistYomi": "あいどるますたーしんでれらがーるずしまむらうづきおおはしあやかこひなたみほつだみなみみむらかなこおおつぼゆかしぶやりんふくはらあやかただりいなあおきるりこかんざきらんこうちだまあやほんだみおはらさゆり",
            "holdMusicCount": 1
        },
        {
            "artistCode": 113764,
            "artist": "[紅月]蓮巳敬人(CV.梅原裕一郎)、鬼龍紅郎(CV.神尾晋一郎)、神崎颯馬(CV.神永圭佑)",
            "artistYomi": "あかつきはすみけいとうめはらゆういちろうきりゅうくろうかみおしんいちろうかんざきそうまかみながけいすけ",
            "holdMusicCount": 14
        },
        {
            "artistCode": 59420,
            "artist": "如月千早(今井麻美)",
            "artistYomi": "きさらぎちはやいまいあさみ",
            "holdMusicCount": 13
        },
        {
            "artistCode": 108564,
            "artist": "Six Gravity[師走駆(CV:梶裕貴)、睦月始(CV:鳥海浩輔)、如月恋(CV:増田俊樹)、弥生春(CV:前野智昭)、卯月新(CV:細谷佳正)、皐月葵(CV:KENN)]",
            "artistYomi": "しっくすぐらびてぃーしわすかけるかじゆうきむつきはじめとりうみこうすけきさらぎこいますだとしきやよいはるまえのともあきうづきあらたほそやよしまささつきあおいけん",
            "holdMusicCount": 2
        },
        {
            "artistCode": 62614,
            "artist": "美月優",
            "artistYomi": "みづきゆう",
            "holdMusicCount": 22
        },
        {
            "artistCode": 160424,
            "artist": "[Knights]朱桜司(CV.土田玲央)、月永レオ(CV.浅沼晋太郎)、瀬名泉(CV.伊藤マサミ)、朔間凛月(CV.山下大輝)、鳴上嵐(CV.北村諒)",
            "artistYomi": "ないつすおうつかさつちだれいおうつきながれおあさぬましんたろうせないずみいとうまさみさくまりつやましただいきなるかみあらしきたむらりょう",
            "holdMusicCount": 8
        },
        {
            "artistCode": 6068,
            "artist": "観月ありさ",
            "artistYomi": "みづきありさ",
            "holdMusicCount": 53
        },
        {
            "artistCode": 146311,
            "artist": "月ノ美兎, 静凛, 樋口楓, える, 剣持刀也, 森中花咲, シスター・クレア, 緑仙, ドーラ, 本間ひまわり, 鷹宮リオン, ジョー・力一",
            "artistYomi": "つきのみとしずかりんひぐちかえでえるけんもちとうやもりなかかざきしすたーくれありゅーしぇんどーらほんまひまわりたかみやりおんじょーりきいち",
            "holdMusicCount": 1
        },
        {
            "artistCode": 12994,
            "artist": "大月みやこ/小金沢昇司",
            "artistYomi": "おおつきみやここがねざわしょうじ",
            "holdMusicCount": 4
        },
        {
            "artistCode": 89396,
            "artist": "島村卯月(大橋彩香)",
            "artistYomi": "しまむらうづきおおはしあやか",
            "holdMusicCount": 6
        },
        {
            "artistCode": 109904,
            "artist": "Procellarum[水無月涙(CV:蒼井翔太)、文月海(CV:羽多野渉)、葉月陽(CV:柿原徹也)、長月夜(CV:近藤隆)、神無月郁(CV:小野賢章)、霜月隼(CV:木村良平)]",
            "artistYomi": "ぷろせらるむみなづきるいあおいしょうたふづきかいはたのわたるはづきようかきはらてつやながつきよるこんどうたかしかんなづきいくおのけんしょうしもつきしゅんきむらりょうへい",
            "holdMusicCount": 3
        },
        {
            "artistCode": 121054,
            "artist": "歌仙兼定(CV:石川界人)/燭台切光忠(CV:佐藤拓也)/鶴丸国永(CV:斉藤壮馬)/三日月宗近(CV:鳥海浩輔)",
            "artistYomi": "かせんかねさだいしかわかいとしょくだいきりみつたださとうたくやつるまるくにながさいとうそうまみかづきむねちかとりうみこうすけ",
            "holdMusicCount": 1
        },
        {
            "artistCode": 109182,
            "artist": "北宇治カルテット[黄前久美子(CV.黒沢ともよ),加藤葉月(CV.朝井彩加),川島緑輝(CV.豊田萌絵),高坂麗奈(CV.安済知佳)]",
            "artistYomi": "きたうじかるてっとおうまえくみこくろさわともよかとうはづきあさいあやかかわしまさふぁいあとよたもえこうさかれいなあんざいちか",
            "holdMusicCount": 4
        },
        {
            "artistCode": 116847,
            "artist": "三月のパンタシア",
            "artistYomi": "さんがつのぱんたしあ",
            "holdMusicCount": 64
        },
        {
            "artistCode": 47170,
            "artist": "青学メンバー・山吹メンバー・観月はじめ・日吉若",
            "artistYomi": "せいがくめんばーやまぶきめんばーみづきはじめひよしわかし",
            "holdMusicCount": 1
        },
        {
            "artistCode": 168401,
            "artist": "天月/まふまふ/un:c/Gero/少年T/そらる/超学生/となりの坂田。/luz",
            "artistYomi": "あまつきまふまふあんくげろしょうねんてぃーそらるちょうがくせいとなりのさかたるす",
            "holdMusicCount": 1
        },
        {
            "artistCode": 92445,
            "artist": "四ノ宮那月(cv.谷山紀章)&一ノ瀬トキヤ(cv.宮野真守)",
            "artistYomi": "しのみやなつきたにやまきしょうあんどいちのせときやみやのまもる",
            "holdMusicCount": 1
        },
        {
            "artistCode": 105994,
            "artist": "妖夢討伐隊[栗山未来(CV.種田梨沙)、名瀬美月(CV.茅原実里)、新堂愛(CV.山岡ゆり)]",
            "artistYomi": "ようむとうばつたいくりやまみらいたねだりさなせみつきちはらみのりしんどうあいやまおかゆり",
            "holdMusicCount": 1
        },
        {
            "artistCode": 148286,
            "artist": "月ノ美兎",
            "artistYomi": "つきのみと",
            "holdMusicCount": 9
        },
        {
            "artistCode": 16175,
            "artist": "かつき奈々",
            "artistYomi": "かつきなな",
            "holdMusicCount": 15
        },
        {
            "artistCode": 86204,
            "artist": "渚月あかり",
            "artistYomi": "なづきあかり",
            "holdMusicCount": 11
        },
        {
            "artistCode": 136897,
            "artist": "安月名莉子",
            "artistYomi": "あづなりこ",
            "holdMusicCount": 12
        },
        {
            "artistCode": 116461,
            "artist": "北島三郎・大月みやこ",
            "artistYomi": "きたじまさぶろうおおつきみやこ",
            "holdMusicCount": 3
        },
        {
            "artistCode": 84368,
            "artist": "友達つくり隊[三日月夜空(井上麻里奈)、柏崎星奈(伊藤かな恵)、楠幸村(山本希望)、志熊理科(福圓美里)、羽瀬川小鳩(花澤香菜)、高山マリア(井口裕香)]",
            "artistYomi": "ともだちつくりたいみかづきよぞらいのうえまりなかしわざきせないとうかなえくすのきゆきむらやまもとのぞみしぐまりかふくえんみさとはせがわこばとはなざわかなたかやままりあいぐちゆか",
            "holdMusicCount": 2
        },
        {
            "artistCode": 47211,
            "artist": "菊地真・秋月律子・双海亜美/真美 (平田宏美・若林直美・下田麻美)",
            "artistYomi": "きくちまことあきづきりつこふたみあみまみひらたひろみわかばやしなおみしもだあさみ",
            "holdMusicCount": 1
        },
        {
            "artistCode": 109716,
            "artist": "new generations[島村卯月(大橋彩香)×渋谷凛(福原綾香)×本田未央(原紗友里)]",
            "artistYomi": "にゅーじぇねれーしょんずしまむらうづきおおはしあやかしぶやりんふくはらあやかほんだみおはらさゆり",
            "holdMusicCount": 3
        },
        {
            "artistCode": 118746,
            "artist": "二階堂大和(CV.白井悠介),和泉三月(CV.代永翼),六弥ナギ(CV.江口拓也)",
            "artistYomi": "にかいどうやまとしらいゆうすけいずみみつきよながつばさろくやなぎえぐちたくや",
            "holdMusicCount": 2
        },
        {
            "artistCode": 101691,
            "artist": "アポロン(入野自由)、ハデス(小野大輔)、月人(上村祐翔)、尊(豊永利行)、バルドル(神谷浩史)、ロキ(細谷佳正)",
            "artistYomi": "あぽろんいりのみゆはですおのだいすけつきとうえむらゆうとたけるとよながとしゆきばるどるかみやひろしろきほそやよしまさ",
            "holdMusicCount": 2
        },
        {
            "artistCode": 120893,
            "artist": "四ノ宮那月(cv.谷山紀章)、帝ナギ(cv.代永翼)",
            "artistYomi": "しのみやなつきたにやまきしょうみかどなぎよながつばさ",
            "holdMusicCount": 1
        },
        {
            "artistCode": 83879,
            "artist": "青木月光",
            "artistYomi": "あおきげっこう",
            "holdMusicCount": 1
        },
        {
            "artistCode": 43971,
            "artist": "霜月はるか",
            "artistYomi": "しもつきはるか",
            "holdMusicCount": 54
        },
        {
            "artistCode": 54463,
            "artist": "観月小夜",
            "artistYomi": "みずきさよ",
            "holdMusicCount": 1
        },
        {
            "artistCode": 112846,
            "artist": "team鳳[星谷悠太(CV.花江夏樹)那雪 透(CV.小野賢章)月皇海斗(CV.ランズベリー・アーサー)天花寺 翔(CV.細谷佳正)空閑 愁(CV.前野智昭)]",
            "artistYomi": "ちーむおおとりほしたにゆうたはなえなつきなゆきとおるおのけんしょうつきがみかいとらんずべりーあーさーてんげんじかけるほそやよしまさくがしゅうまえのともあき",
            "holdMusicCount": 11
        },
        {
            "artistCode": 88938,
            "artist": "一十木音也(cv.寺島拓篤)、聖川真斗(cv.鈴村健一)、四ノ宮那月(cv.谷山紀章)、一ノ瀬トキヤ(cv.宮野真守)、神宮寺レン(cv.諏訪部順一)、来栖翔(cv.下野紘)、愛島セシル(cv.鳥海浩輔)",
            "artistYomi": "いっときおとやてらしまたくまひじりかわまさとすずむらけんいちしのみやなつきたにやまきしょういちのせときやみやのまもるじんぐうじれんすわべじゅんいちくるすしょうしものひろあいじませしるとりうみこうすけ",
            "holdMusicCount": 13
        },
        {
            "artistCode": 110939,
            "artist": "THE IDOLM@STER CINDERELLA GIRLS!!(塩見周子(ルゥティン)、高垣楓(早見沙織)、渋谷凛(福原綾香)、前川みく(高森奈津美)、一ノ瀬志希(藍原ことみ)、島村卯月(大橋彩香)、相葉夕美(木村珠莉)、城ヶ崎美嘉(佳村はるか)、向井拓海(原優子))",
            "artistYomi": "あいどるますたーしんでれらがーるずしおみしゅうこるぅてぃんたかがきかえではやみさおりしぶやりんふくはらあやかまえかわみくたかもりなつみいちのせしきあいはらことみしまむらうづきおおはしあやかあいばゆみきむらじゅり",
            "holdMusicCount": 1
        },
        {
            "artistCode": 98721,
            "artist": "双葉杏(五十嵐裕美)、前川みく(高森奈津美) 、島村卯月(大橋彩香)、小日向美穂(津田美波)、安部菜々(三宅麻理恵)",
            "artistYomi": "ふたばあんずいがらしひろみまえかわみくたかもりなつみしまむらうづきおおはしあやかこひなたみほつだみなみあべななみやけまりえ",
            "holdMusicCount": 2
        },
        {
            "artistCode": 99343,
            "artist": "寿嶺二(cv.森久保祥太郎)、美風藍(cv.蒼井翔太)、四ノ宮那月(cv.谷山紀章)",
            "artistYomi": "ことぶきれいじもりくぼしょうたろうみかぜあいあおいしょうたしのみやなつきたにやまきしょう",
            "holdMusicCount": 1
        },
        {
            "artistCode": 95841,
            "artist": "水無月涙(CV:蒼井翔太)",
            "artistYomi": "みなづきるいあおいしょうた",
            "holdMusicCount": 5
        },
        {
            "artistCode": 117972,
            "artist": "三日月宗近",
            "artistYomi": "みかづきむねちか",
            "holdMusicCount": 1
        },
        {
            "artistCode": 57789,
            "artist": "大月みやこ&徳光和夫",
            "artistYomi": "おおつきみやこあんどとくみつかずお",
            "holdMusicCount": 2
        },
        {
            "artistCode": 117078,
            "artist": "Cafe Parade[神谷幸広(CV.狩野翔),東雲荘一郎(CV.天崎滉平),アスラン=ベルゼビュートII世(CV.古川慎),卯月巻緒(CV.児玉卓也),水嶋咲(CV.小林大紀)]",
            "artistYomi": "かふぇぱれーどかみやゆきひろかりのしょうしののめそういちろうあまさきこうへいあすらんべるぜびゅーとにせいふるかわまことうづきまきおこだまたくやみずしまさきこばやしだいき",
            "holdMusicCount": 14
        },
        {
            "artistCode": 118276,
            "artist": "VEPPer(別府月彦(CV河本啓佑)、別府日彦(CV村上喜紀))",
            "artistYomi": "べっぱーべっぷあきひここうもとけいすけべっぷはるひこむらかみよしき",
            "holdMusicCount": 5
        },
        {
            "artistCode": 85458,
            "artist": "天海春香(中村繪里子)、星井美希(長谷川明子)、如月千早(今井麻美)、高槻やよい(仁後真耶子)、萩原雪歩(浅倉杏美)、菊地真(平田宏美)、双海真美(下田麻美)、四条貴音(原由実)、我那覇響(沼倉愛美)",
            "artistYomi": "あまみはるかなかむらえりこほしいみきはせがわあきこきさらぎちはやいまいあさみたかつきやよいにごまやこはぎわらゆきほあさくらあずみきくちまことひらたひろみふたみまみしもだあさみしじょうたかねはらゆみがなはひびきぬまくらまなみ",
            "holdMusicCount": 1
        },
        {
            "artistCode": 116418,
            "artist": "島村卯月(大橋彩香)、渋谷凛(福原綾香)、本田未央(原紗友里)、大槻唯(山下七海)、上条春菜(長島光那)",
            "artistYomi": "しまむらうづきおおはしあやかしぶやりんふくはらあやかほんだみおはらさゆりおおつきゆいやましたななみかみじょうはるなながしまみな",
            "holdMusicCount": 1
        },
        {
            "artistCode": 103106,
            "artist": "卯月新(CV:細谷佳正)&皐月葵(CV:KENN)",
            "artistYomi": "うづきあらたほそやよしまさあんどさつきあおいけん",
            "holdMusicCount": 2
        },
        {
            "artistCode": 184800,
            "artist": "VΔLZ (甲斐田晴, 弦月藤士郎, 長尾景)",
            "artistYomi": "ばるつかいだはるげんづきとうじろうながおけい",
            "holdMusicCount": 7
        },
        {
            "artistCode": 106692,
            "artist": "イリス・フレイア(日高里菜)、物部深月(沼倉愛美)",
            "artistYomi": "いりすふれいあひだかりなもののべみつきぬまくらまなみ",
            "holdMusicCount": 2
        },
        {
            "artistCode": 97374,
            "artist": "月読調(CV:南條愛乃)",
            "artistYomi": "つくよみしらべなんじょうよしの",
            "holdMusicCount": 9
        },
        {
            "artistCode": 83242,
            "artist": "一十木音也(cv.寺島拓篤)、聖川真斗(cv.鈴村健一)、四ノ宮那月(cv.谷山紀章)、一ノ瀬トキヤ(cv.宮野真守)、神宮寺レン(cv.諏訪部順一)、来栖翔(cv.下野紘)",
            "artistYomi": "いっときおとやてらしまたくまひじりかわまさとすずむらけんいちしのみやなつきたにやまきしょういちのせときやみやのまもるじんぐうじれんすわべじゅんいちくるすしょうしものひろ",
            "holdMusicCount": 1
        },
        {
            "artistCode": 176444,
            "artist": "VΔLZ (弦月藤士郎, 長尾景, 甲斐田晴)",
            "artistYomi": "ばるつげんづきとうじろうながおけいかいだはる",
            "holdMusicCount": 5
        },
        {
            "artistCode": 54921,
            "artist": "星井美希・如月千早(長谷川明子・今井麻美)",
            "artistYomi": "ほしいみききさらぎちはやはせがわあきこいまいあさみ",
            "holdMusicCount": 1
        },
        {
            "artistCode": 182782,
            "artist": "天月/狂蘭メロコ/八雲べに/ライト",
            "artistYomi": "あまつききょうらんめろこやくもべにらいと",
            "holdMusicCount": 1
        },
        {
            "artistCode": 48630,
            "artist": "如月千早・三浦あずさ・秋月律子(今井麻美・たかはし智秋・若林直美)",
            "artistYomi": "きさらぎちはやみうらあずさあきづきりつこいまいあさみたかはしちあきわかばやしなおみ",
            "holdMusicCount": 1
        },
        {
            "artistCode": 95831,
            "artist": "卯月新(CV:細谷佳正)",
            "artistYomi": "うづきあらたほそやよしまさ",
            "holdMusicCount": 4
        },
        {
            "artistCode": 118755,
            "artist": "DAY DREAM[一十木音也(cv.寺島拓篤)、四ノ宮那月(cv.谷山紀章)、神宮寺レン(cv.諏訪部順一)、来栖翔(cv.下野紘)、寿嶺二(cv.森久保祥太郎)、黒崎蘭丸(cv.鈴木達央)]",
            "artistYomi": "でいどりーむいっときおとやてらしまたくましのみやなつきたにやまきしょうじんぐうじれんすわべじゅんいちくるすしょうしものひろことぶきれいじもりくぼしょうたろうくろさきらんまるすずきたつひさ",
            "holdMusicCount": 1
        },
        {
            "artistCode": 97861,
            "artist": "長月夜(CV:近藤隆)",
            "artistYomi": "ながつきよるこんどうたかし",
            "holdMusicCount": 6
        },
        {
            "artistCode": 97040,
            "artist": "うたたP feat.結月ゆかり",
            "artistYomi": "うたたぴーふぃーちゃりんぐゆづきゆかり",
            "holdMusicCount": 1
        },
        {
            "artistCode": 100453,
            "artist": "睦月始(CV:鳥海浩輔)&弥生春(CV:前野智昭)",
            "artistYomi": "むつきはじめとりうみこうすけあんどやよいはるまえのともあき",
            "holdMusicCount": 3
        },
        {
            "artistCode": 86140,
            "artist": "葉月みなみ",
            "artistYomi": "はづきみなみ",
            "holdMusicCount": 12
        },
        {
            "artistCode": 106574,
            "artist": "ねじ式 feat.結月ゆかり",
            "artistYomi": "ねじしきふぃーちゃりんぐゆづきゆかり",
            "holdMusicCount": 2
        },
        {
            "artistCode": 101113,
            "artist": "月読調(CV:南條愛乃)、暁切歌(CV:茅野愛衣)",
            "artistYomi": "つくよみしらべなんじょうよしのあかつききりかかやのあい",
            "holdMusicCount": 4
        },
        {
            "artistCode": 105544,
            "artist": "水無月涙(CV:蒼井翔太)&神無月郁(CV:小野賢章)",
            "artistYomi": "みなづきるいあおいしょうたあんどかんなづきいくおのけんしょう",
            "holdMusicCount": 2
        },
        {
            "artistCode": 120488,
            "artist": "F-LAGS[秋月涼(CV.三瓶由布子),兜大吾(CV.浦尾岳大),九十九一希(CV.徳武竜也)]",
            "artistYomi": "ふらっぐすあきづきりょうさんぺいゆうこかぶとだいごうらおたけひろつくもかずきとくたけたつや",
            "holdMusicCount": 5
        },
        {
            "artistCode": 105541,
            "artist": "葉月陽(CV:柿原徹也)&長月夜(CV:近藤隆)",
            "artistYomi": "はづきようかきはらてつやあんどながつきよるこんどうたかし",
            "holdMusicCount": 3
        },
        {
            "artistCode": 139518,
            "artist": "Drop&葉月ゆら",
            "artistYomi": "どろっぷあんどはつきゆら",
            "holdMusicCount": 1
        },
        {
            "artistCode": 122812,
            "artist": "A3ders![佐久間咲也、皇 天馬、摂津万里、月岡 紬(CV:酒井広大、江口拓也、沢城千春、田丸篤志)]",
            "artistYomi": "えーすりーだーずさくまさくやすめらぎてんませっつばんりつきおかつむぎさかいこうだいえぐちたくやさわしろちはるたまるあつし",
            "holdMusicCount": 4
        },
        {
            "artistCode": 94276,
            "artist": "睦月始(CV:鳥海浩輔)",
            "artistYomi": "むつきはじめとりうみこうすけ",
            "holdMusicCount": 6
        },
        {
            "artistCode": 112537,
            "artist": "レトルト×キヨ×露吐 feat.結月ゆかり",
            "artistYomi": "れとるとかけるきよかけるあらわとふぃーちゃりんぐゆづきゆかり",
            "holdMusicCount": 1
        },
        {
            "artistCode": 96981,
            "artist": "文月海(CV:羽多野渉)",
            "artistYomi": "ふづきかいはたのわたる",
            "holdMusicCount": 7
        },
        {
            "artistCode": 48876,
            "artist": "霜月はるか†Revo",
            "artistYomi": "しもつきはるかくろすれぼ",
            "holdMusicCount": 3
        },
        {
            "artistCode": 97863,
            "artist": "霜月隼(CV:木村良平)",
            "artistYomi": "しもつきしゅんきむらりょうへい",
            "holdMusicCount": 6
        },
        {
            "artistCode": 71791,
            "artist": "暁月めぐみ(暁恵)",
            "artistYomi": "あかつきめぐみ",
            "holdMusicCount": 8
        },
        {
            "artistCode": 62365,
            "artist": "結・月海・草野・松(早見沙織・井上麻里奈・花澤香菜・遠藤綾)",
            "artistYomi": "むすびつきうみくさのまつはやみさおりいのうえまりなはなざわかなえんどうあや",
            "holdMusicCount": 4
        },
        {
            "artistCode": 176221,
            "artist": "[EVIL NUM+]逆先夏目(CV.野島健児)、氷鷹北斗(CV.前野智昭)、葵ひなた(CV.斉藤壮馬)、紫之創(CV.高坂知也)、朔間凛月(CV.山下大輝)",
            "artistYomi": "いーびるなんばーさかさきなつめのじまけんじひだかほくとまえのともあきあおいひなたさいとうそうましのはじめこうさかともやさくまりつやましただいき",
            "holdMusicCount": 1
        },
        {
            "artistCode": 95838,
            "artist": "皐月葵(CV:KENN)",
            "artistYomi": "さつきあおいけん",
            "holdMusicCount": 6
        },
        {
            "artistCode": 65829,
            "artist": "若月あや",
            "artistYomi": "わかつきあや",
            "holdMusicCount": 10
        },
        {
            "artistCode": 173784,
            "artist": "月裏,ニャン・トンロン",
            "artistYomi": "つきりにゃんとんろん",
            "holdMusicCount": 1
        },
        {
            "artistCode": 120718,
            "artist": "萩原雪歩(浅倉杏美)、三浦あずさ(たかはし智秋)、四条貴音(原由実)、秋月律子(若林直美)",
            "artistYomi": "はぎわらゆきほあさくらあずみみうらあずさたかはしちあきしじょうたかねはらゆみあきづきりつこわかばやしなおみ",
            "holdMusicCount": 1
        },
        {
            "artistCode": 179046,
            "artist": "みつき(cv.平塚紗依)",
            "artistYomi": "みつきひらつかさえ",
            "holdMusicCount": 1
        },
        {
            "artistCode": 121276,
            "artist": "THE IDOLM@STER CINDERELLA GIRLS!!(高垣楓(早見沙織)、三船美優(原田彩楓)、森久保乃々(高橋花林)、島村卯月(大橋彩香)、安部菜々(三宅麻理恵)、前川みく(高森奈津美)、依田芳乃(高田憂希)、本田未央(原紗友里)、佐藤心(花守ゆみり))",
            "artistYomi": "あいどるますたーしんでれらがーるずたかがきかえではやみさおりみふねみゆはらださやかもりくぼののたかはしかりんしまむらうづきおおはしあやかあべななみやけまりえまえかわみくたかもりなつみよりたよしのたかだゆうきほんだみおはらさゆりさとうしんはなもりゆみり",
            "holdMusicCount": 1
        },
        {
            "artistCode": 106083,
            "artist": "メイガス・トゥー<浅見リリス(cv:原由実)、神無月アリン(cv:内田彩)>",
            "artistYomi": "めいがすとぅーあさみりりすはらゆみかんなづきありんうちだあや",
            "holdMusicCount": 1
        },
        {
            "artistCode": 6487,
            "artist": "金月真美",
            "artistYomi": "きんげつまみ",
            "holdMusicCount": 5
        },
        {
            "artistCode": 183438,
            "artist": "[MODE/D]衣更真緒(CV.梶裕貴)、月永レオ(CV.浅沼晋太郎)、守沢千秋(CV.帆世雄一)、巴日和(CV.花江夏樹)",
            "artistYomi": "もーどでぃーいさらまおかじゆうきつきながれおあさぬましんたろうもりさわちあきほせゆういちともえひよりはなえなつき",
            "holdMusicCount": 1
        },
        {
            "artistCode": 100452,
            "artist": "師走駆(CV:梶裕貴)&如月恋(CV:増田俊樹)",
            "artistYomi": "しわすかけるかじゆうきあんどきさらぎこいますだとしき",
            "holdMusicCount": 3
        }
    ]
}
